Gov 50 Final Project
…
While these categories may not entirely reflect of respondents’ views on a given issue, they offer a solid foundation to reveal potential differences by race and party.

The research design for this study is cross-sectional.

My dependent variable summaries are below, with barplots with the numbers of participants that responded to the survey in a given way for each social issue.

library(tidyverse)
library(dplyr)

voting_trends_2020 <- read_csv("anes_timeseries_2020_csv_20220210.csv")
voting_trends_2020

# A tibble: 8,280 × 1,771
   version        V200001 V160001_orig V200002 V200003 V200004 V200005
   <chr>            <dbl>        <dbl>   <dbl>   <dbl>   <dbl>   <dbl>
 1 ANES2020TimeS…  200015       401318       3       2       3       0
 2 ANES2020TimeS…  200022       300261       3       2       3       0
 3 ANES2020TimeS…  200039       400181       3       2       3       0
 4 ANES2020TimeS…  200046       300171       3       2       3       0
 5 ANES2020TimeS…  200053       405145       3       2       3       1
 6 ANES2020TimeS…  200060       400374       3       2       3       0
 7 ANES2020TimeS…  200084       407013       3       2       3       0
 8 ANES2020TimeS…  200091       407174       3       2       3       0
 9 ANES2020TimeS…  200107       406264       3       2       3       0
10 ANES2020TimeS…  200114       402782       3       2       3       1
# ℹ 8,270 more rows
# ℹ 1,764 more variables: V200006 <dbl>, V200007 <dbl>,
#   V200008 <dbl>, V200009 <dbl>, V200010a <dbl>, V200010b <dbl>,
#   V200010c <dbl>, V200010d <dbl>, V200011a <dbl>, V200011b <dbl>,
#   V200011c <dbl>, V200011d <dbl>, V200012a <dbl>, V200012b <dbl>,
#   V200012c <dbl>, V200012d <dbl>, V200013a <dbl>, V200013b <dbl>,
#   V200013c <dbl>, V200013d <dbl>, V200014a <dbl>, V200014b <dbl>, …
…
  select(V201549x, V201336, V201416, V201417, V201262, V201324, V201018, V201510, V201600) |>
  filter(
    V201549x >= 1,
    V201018 == 1 | V201018 == 2,
    V201336 %in% c(1,2,3,4),
    V201416 >= 1,
    V201417 >= 1,
    V201262 %in% c(1, 2, 3, 4, 5, 6, 7),
    V201324 >= 1,
    V201510 %in% c(1, 2, 3, 4, 5, 6, 7, 8),
    V201600 >= 1
  )
voting_trends_2020

# A tibble: 2,604 × 9
   V201549x V201336 V201416 V201417 V201262 V201324 V201018 V201510
      <dbl>   <dbl>   <dbl>   <dbl>   <dbl>   <dbl>   <dbl>   <dbl>
 1        3       2       3       1       7       2       2       6
 2        4       1       1       1       1       4       2       4
 3        3       1       3       3       1       4       1       2
 4        1       4       1       3       3       3       1       6
 5        3       4       1       3       3       4       2       7
 6        3       3       1       3       2       5       1       1
 7        1       4       1       3       1       4       1       6
 8        1       2       3       3       6       2       1       1
 9        1       4       1       3       1       4       2       8
10        3       4       1       3       4       4       1       2
# ℹ 2,594 more rows
# ℹ 1 more variable: V201600 <dbl>
…
    gender = if_else(gender == 1, "Male", "Female"),
    education_level = case_when(
      education_level == 1 ~ "Less than high school",
      education_level == 2 ~ "High school graduate",
      education_level == 3 ~ "Some college but no degree",
      education_level == 4 ~ "Associate degree in college - vocational",
      education_level == 5 ~ "Associate degree in college - academic",
      education_level == 6 ~ "Bachelor's degree",
      education_level == 7 ~ "Master's degree",
      education_level == 8 ~ "Professional school degree/doctoral degree"
    )
  )
voting_trends

# A tibble: 2,604 × 10
   race_num abortion_views lgbtq_views immigration_views
      <dbl>          <dbl>       <dbl>             <dbl>
 1        3              2           3                 1
 2        4              1           1                 1
 3        3              1           3                 3
 4        1              4           1                 3
 5        3              4           1                 3
 6        3              3           1                 3
 7        1              4           1                 3
 8        1              2           3                 3
 9        1              4           1                 3
10        3              4           1                 3
# ℹ 2,594 more rows
# ℹ 6 more variables: environment_views <dbl>, economy_views <dbl>,
#   party <chr>, education_level <chr>, gender <chr>, race <chr>
…
rep_voting_trends

# A tibble: 1,059 × 11
   race_num abortion_views lgbtq_views immigration_views
      <dbl>          <dbl>       <dbl>             <dbl>
 1        3              2           3                 1
 2        4              1           1                 1
 3        3              4           1                 3
 4        1              4           1                 3
 5        1              2           1                 2
 6        1              3           1                 1
 7        4              1           3                 2
 8        1              2           1                 1
 9        1              2           3                 2
10        1              3           1                 1
# ℹ 1,049 more rows
# ℹ 7 more variables: environment_views <dbl>, economy_views <dbl>,
#   party <chr>, education_level <chr>, gender <chr>, race <chr>,
#   race3 <chr>
…
dem_voting_trends

# A tibble: 1,545 × 11
   race_num abortion_views lgbtq_views immigration_views
      <dbl>          <dbl>       <dbl>             <dbl>
 1        3              1           3                 3
 2        1              4           1                 3
 3        3              3           1                 3
 4        1              4           1                 3
 5        1              2           3                 3
 6        3              4           1                 3
 7        1              4           1                 4
 8        2              1           3                 3
 9        1              3           1                 3
10        1              4           1                 2
# ℹ 1,535 more rows
# ℹ 7 more variables: environment_views <dbl>, economy_views <dbl>,
#   party <chr>, education_level <chr>, gender <chr>, race <chr>,
#   race2 <chr>
…
